{
    "status": true,
    "data": {
        "center": {
            "img": "images/inhtml/map_pin.svg",
            "coordinate": [
                55.900658, 
                37.539635
            ],
            "header": "<img src='images/content/storage.jpg' width='376' height='186'>",
            "body": "<div class='body'><h4>Главный офис</h4><p class='name'>Телефон</p><p class='value'>+7 (495) 21-21-102</p><p class='name'>Адрес</p><p class='value'>РФ, 127411, Москва, Дмитровское шоссе, 157, стр. 9, офис 9308 а,б,в.</p></div>"
        },
        "production": {
            "img": "images/inhtml/map_pin.svg",
            "coordinate": [
                55.989663, 
                37.533310
            ],
            "header": "<img src='images/content/storage.jpg' width='376' height='186'>",
            "body": "<div class='body'><h4>Производство</h4><p class='name'>Телефон</p><p class='value'>+7 (499) 670-07-07</p><p class='name'>Адрес</p><p class='value'>РФ, 141051, МО, Мытищинский муниципальный район, с/п Федоскинское, д. Капустино, ш. Дмитровское, стр. N 36.</p></div>"
        },
        "storage": {
            "img": "images/inhtml/map_pin.svg",
            "coordinate": [
                56.012616, 
                37.554648
            ],
            "header": "<img src='images/content/storage.jpg' width='376' height='186'>",
            "body": "<div class='body'><h4>Склад “Еремино”</h4><p class='name'>Телефон</p><p class='value'>+7 (495) 21-21-102</p><p class='name'>Адрес</p><p class='value'>МО, Мытищинский р-н, с/п Федоскинское, а/д Еремино-Новосельцево, 1-й км, вл. 1, стр. 8 (Дмитровское ш. 100ж)</p></div>",
            "footer": "<a class='js-route route' href='javascript:void(0);'>Проложить маршрут</a>"
        }
    }
}