<?xml version="1.0" encoding="utf-8"?>
<!-- Generator: Adobe Illustrator 24.1.2, SVG Export Plug-In . SVG Version: 6.00 Build 0)  -->
<svg version="1.1" id="Слой_1" xmlns="http://www.w3.org/2000/svg" xmlns:xlink="http://www.w3.org/1999/xlink" x="0px" y="0px"
	 width="296px" height="500px" viewBox="0 0 296 500" enable-background="new 0 0 296 500" xml:space="preserve">
<path fill-rule="evenodd" clip-rule="evenodd" d="M42.3,496.5L3.7,458l208-208L3.7,42L42.3,3.4L288.9,250L42.3,496.5z"/>
</svg>
