<svg width="500" height="500" viewBox="0 0 500 500" fill="none" xmlns="http://www.w3.org/2000/svg">
<path d="M217.398 111.2C220.096 113.897 224.498 113.897 227.266 111.2C229.964 108.502 229.964 104.029 227.266 101.331L218.534 92.599C215.836 89.9012 211.435 89.9012 208.666 92.599C205.968 95.2968 205.968 99.6985 208.666 102.467L217.398 111.2Z" fill="#2C3B4B"/>
<path d="M251.405 401.07C247.571 401.07 244.447 404.194 244.447 408.028V421.943C244.447 425.776 247.571 428.9 251.405 428.9C255.238 428.9 258.362 425.776 258.362 421.943V408.028C258.362 404.194 255.238 401.07 251.405 401.07Z" fill="#2C3B4B"/>
<path d="M285.411 111.2L294.143 102.467C296.841 99.7695 296.841 95.3678 294.143 92.599C291.446 89.9012 287.044 89.9012 284.275 92.599L275.543 101.331C272.845 104.029 272.845 108.431 275.543 111.2C278.312 113.897 282.713 113.897 285.411 111.2Z" fill="#2C3B4B"/>
<path d="M251.405 101.9C255.238 101.9 258.362 98.7761 258.362 94.9424V80.9565C258.362 77.1228 255.238 73.999 251.405 73.999C247.571 73.999 244.447 77.1228 244.447 80.9565V94.8714C244.447 98.7761 247.571 101.9 251.405 101.9Z" fill="#2C3B4B"/>
<path d="M217.398 391.77L208.666 400.503C205.968 403.201 205.968 407.602 208.666 410.371C211.364 413.069 215.765 413.069 218.534 410.371L227.266 401.639C229.964 398.941 229.964 394.539 227.266 391.77C224.569 389.073 220.096 389.073 217.398 391.77Z" fill="#2C3B4B"/>
<path d="M375.006 276.12H358.251C353.92 276.12 350.371 272.57 350.371 268.24C350.371 263.909 353.92 260.359 358.251 260.359H389.844V246.445H373.586V232.956H359.671V246.445H358.251C346.182 246.445 336.385 256.242 336.385 268.311C336.385 280.38 346.182 290.177 358.251 290.177H375.006C385.442 290.177 385.442 306.009 375.006 306.009H343.413V319.924H359.671V333.413H373.586V319.924H375.006C387.075 319.924 396.872 310.127 396.872 298.058C396.872 285.917 387.075 276.12 375.006 276.12Z" fill="#2C3B4B"/>
<path d="M285.411 391.77C282.713 389.073 278.312 389.073 275.543 391.77C272.845 394.468 272.845 398.87 275.543 401.639L284.275 410.371C286.973 413.069 291.375 413.069 294.143 410.371C296.841 407.673 296.841 403.272 294.143 400.503L285.411 391.77Z" fill="#2C3B4B"/>
<path d="M488.811 132.995H403.618L405.322 141.372C410.291 166.007 391.407 188.796 366.63 188.796C341.782 188.796 322.968 166.007 327.938 141.372L329.641 132.995C307.775 132.995 209.164 132.995 189.569 132.995C190.918 102.68 166.567 77.2642 136.182 77.2642C105.796 77.2642 81.5157 102.68 82.7936 132.995H14V369.974H99.1934C97.9865 363.301 96.7086 359.751 96.7086 353.717C96.7086 331.921 114.457 314.244 136.182 314.244C157.906 314.244 175.654 331.992 175.654 353.717C175.654 359.751 174.377 363.159 173.17 369.974H313.242C311.893 400.289 336.244 425.705 366.63 425.705C397.015 425.705 421.295 400.289 420.017 369.974H488.811V132.995ZM244.448 356.059H189.569C190.918 325.745 166.567 300.329 136.182 300.329C105.796 300.329 81.5157 325.745 82.7936 356.059H27.9149V146.91H99.1934L97.4895 138.603C92.5199 113.968 111.404 91.1791 136.182 91.1791C161.03 91.1791 179.843 113.968 174.873 138.603L173.17 146.981H244.448V194.405C214.133 193.056 188.717 217.407 188.717 247.793C188.717 277.256 212.714 301.252 242.176 301.252C242.957 301.252 243.738 301.252 244.519 301.181V356.059H244.448ZM474.896 356.059H403.689C404.896 362.733 406.174 366.283 406.174 372.317C406.174 394.113 388.425 411.79 366.701 411.79C344.905 411.79 327.228 394.042 327.228 372.317C327.228 366.283 328.506 362.875 329.712 356.059H258.363V284.781C251.69 285.988 248.14 287.266 242.105 287.266C220.31 287.266 202.632 269.517 202.632 247.793C202.632 222.945 225.422 204.131 250.057 209.101L258.434 210.805V146.981H313.313C311.964 177.295 336.315 202.711 366.701 202.711C397.086 202.711 421.366 177.295 420.088 146.981H474.967V356.059H474.896Z" fill="#2C3B4B"/>
<path d="M144.558 212.935H127.804C117.368 212.935 117.368 197.103 127.804 197.103H159.396V183.188H143.139V169.699H129.224V183.188H127.804C115.735 183.188 105.938 192.985 105.938 205.054C105.938 217.124 115.735 226.921 127.804 226.921H144.558C154.995 226.921 154.995 242.753 144.558 242.753H112.966V256.667H129.224V270.156H143.139V256.667H144.558C156.628 256.667 166.425 246.87 166.425 234.801C166.425 222.732 156.628 212.935 144.558 212.935Z" fill="#2C3B4B"/>
</svg>
