<svg width="500" height="500" viewBox="0 0 500 500" fill="none" xmlns="http://www.w3.org/2000/svg">
<path d="M259.665 122.616H240.337C235.203 122.616 231.051 126.769 231.051 131.978V147.305C228.559 148.135 226.143 149.192 223.727 150.325L212.931 139.453C211.194 137.716 208.854 136.735 206.362 136.735C203.871 136.735 201.53 137.716 199.794 139.453L186.128 153.194C184.392 154.93 183.41 157.271 183.41 159.762C183.41 162.254 184.392 164.594 186.128 166.331L196.925 177.203C195.792 179.543 194.735 182.035 193.905 184.526H178.654C173.52 184.526 169.367 188.679 169.367 193.888V213.292C169.367 218.426 173.52 222.654 178.654 222.654H193.905C194.735 225.145 195.792 227.637 196.925 229.977L186.128 240.849C182.504 244.473 182.504 250.438 186.128 254.062L199.794 267.803C201.53 269.539 203.871 270.521 206.362 270.521C208.854 270.521 211.194 269.539 212.931 267.803L223.727 256.931C226.068 258.139 228.559 259.12 231.051 259.951V275.277C231.051 280.411 235.203 284.639 240.337 284.639H259.665C264.799 284.639 268.952 280.487 268.952 275.277V259.951C271.443 259.12 273.859 258.063 276.275 256.931L287.072 267.803C288.808 269.539 291.149 270.521 293.64 270.521C296.132 270.521 298.472 269.539 300.209 267.803L313.874 254.062C315.611 252.325 316.592 249.985 316.592 247.493C316.592 245.002 315.611 242.661 313.874 240.925L303.002 230.053C304.135 227.712 305.192 225.221 306.022 222.729H321.273C326.407 222.729 330.56 218.577 330.56 213.367V193.964C330.56 191.472 329.578 189.132 327.842 187.395C326.105 185.659 323.765 184.677 321.273 184.677H306.022C305.192 182.186 304.135 179.694 303.002 177.354L313.799 166.482C315.535 164.745 316.517 162.405 316.517 159.913C316.517 157.422 315.535 155.081 313.799 153.345L300.133 139.604C298.397 137.867 296.056 136.886 293.565 136.886C291.073 136.886 288.733 137.867 286.996 139.604L276.2 150.476C273.859 149.268 271.368 148.286 268.876 147.456V132.129C268.952 126.844 264.724 122.616 259.665 122.616ZM289.337 171.087C286.996 173.428 286.619 176.976 288.355 179.77C290.922 183.922 292.81 188.452 293.942 193.284C294.697 196.531 297.491 198.72 300.813 198.72H316.592V208.535H300.737C297.491 208.535 294.622 210.8 293.867 213.971C292.734 218.803 290.847 223.333 288.28 227.486C286.543 230.279 286.996 233.828 289.261 236.168L300.435 247.418L293.489 254.364L282.391 243.265C280.05 240.925 276.502 240.547 273.708 242.284C269.556 244.851 265.026 246.738 260.269 247.871C257.098 248.626 254.833 251.419 254.833 254.741V270.596H245.094V254.741C245.094 251.419 242.829 248.626 239.658 247.871C234.901 246.738 230.371 244.851 226.219 242.284C223.425 240.547 219.877 240.925 217.536 243.265L206.362 254.439L199.416 247.493L210.59 236.244C212.931 233.903 213.308 230.355 211.572 227.561C209.005 223.409 207.117 218.879 205.985 214.047C205.23 210.8 202.436 208.611 199.114 208.611H183.335V198.796H199.114C202.361 198.796 205.23 196.531 205.985 193.36C207.117 188.528 209.005 183.998 211.572 179.845C213.308 177.052 212.855 173.503 210.59 171.163L199.416 159.913L206.362 152.967L217.536 164.141C219.877 166.482 223.425 166.859 226.219 165.123C230.371 162.556 234.901 160.668 239.658 159.536C242.829 158.781 245.094 155.987 245.094 152.665V136.81H254.833V152.665C254.833 155.987 257.098 158.781 260.269 159.536C265.026 160.668 269.556 162.556 273.708 165.123C276.502 166.859 280.05 166.482 282.391 164.141L293.565 152.967L300.511 159.913L289.337 171.087Z" fill="#2C3B4B"/>
<path d="M249.999 172.446C233.012 172.446 219.195 186.262 219.195 203.25C219.195 220.237 233.012 234.054 249.999 234.054C266.987 234.054 280.803 220.237 280.803 203.25C280.803 186.262 266.987 172.446 249.999 172.446ZM249.999 219.935C240.788 219.935 233.314 212.461 233.314 203.25C233.314 194.039 240.788 186.564 249.999 186.564C259.21 186.564 266.685 194.039 266.685 203.25C266.685 212.461 259.21 219.935 249.999 219.935Z" fill="#2C3B4B"/>
<path d="M123.613 196.455H105.946C102.095 196.455 99 199.702 99 203.628C99 207.629 102.095 210.8 105.946 210.8H123.613C127.463 210.8 130.559 207.554 130.559 203.628C130.559 199.702 127.463 196.455 123.613 196.455Z" fill="#2C3B4B"/>
<path d="M394.054 196.455H376.387C372.537 196.455 369.441 199.702 369.441 203.628C369.441 207.629 372.537 210.8 376.387 210.8H394.054C397.905 210.8 401 207.554 401 203.628C400.925 199.702 397.829 196.455 394.054 196.455Z" fill="#2C3B4B"/>
<path d="M161.212 284.865C159.324 284.865 157.512 285.62 156.153 287.054L143.167 300.493C140.449 303.362 140.449 307.968 143.167 310.837C144.526 312.271 146.338 313.026 148.226 313.026C150.113 313.026 151.925 312.271 153.284 310.837L166.27 297.398C168.988 294.529 168.988 289.923 166.27 287.054C164.911 285.62 163.099 284.865 161.212 284.865Z" fill="#2C3B4B"/>
<path d="M338.788 121.559C340.676 121.559 342.488 120.804 343.847 119.445L356.833 106.459C359.626 103.666 359.626 99.1357 356.833 96.3422C354.039 93.5487 349.509 93.5487 346.716 96.3422L333.73 109.328C330.936 112.122 330.936 116.652 333.73 119.445C335.089 120.804 336.901 121.559 338.788 121.559Z" fill="#2C3B4B"/>
<path d="M250 83.809C253.7 83.809 256.795 80.7135 256.795 76.863V59.196C256.795 55.3455 253.775 52.25 250 52.25C246.301 52.25 243.205 55.3455 243.205 59.196V76.863C243.205 80.7135 246.225 83.809 250 83.809Z" fill="#2C3B4B"/>
<path d="M343.847 287.054C342.488 285.62 340.676 284.865 338.788 284.865C336.901 284.865 335.089 285.62 333.73 287.054C331.012 289.923 331.012 294.529 333.73 297.398L346.716 310.837C348.075 312.271 349.887 313.026 351.774 313.026C353.662 313.026 355.474 312.271 356.833 310.837C359.551 307.968 359.551 303.362 356.833 300.493L343.847 287.054Z" fill="#2C3B4B"/>
<path d="M156.155 119.445C157.514 120.804 159.326 121.559 161.213 121.559C163.101 121.559 164.913 120.804 166.272 119.445C167.631 118.086 168.386 116.274 168.386 114.387C168.386 112.499 167.631 110.687 166.272 109.328L153.286 96.418C151.927 95.059 150.115 94.304 148.227 94.304C146.34 94.304 144.528 95.059 143.169 96.418C141.81 97.777 141.055 99.5889 141.055 101.476C141.055 103.364 141.81 105.176 143.169 106.535L156.155 119.445Z" fill="#2C3B4B"/>
<path d="M328.973 124.579C311.533 106.988 288.43 95.6628 263.968 92.6428C262.08 92.4163 260.268 92.9448 258.758 94.0773C257.248 95.2098 256.342 96.9463 256.116 98.8338C255.663 102.684 258.381 106.233 262.231 106.686C306.625 112.122 341.28 147.078 346.489 191.699C346.942 195.247 349.887 197.965 353.511 197.965C353.813 197.965 354.039 197.965 354.341 197.89C358.192 197.437 360.985 193.888 360.532 190.038C357.663 165.5 346.489 142.246 328.973 124.579Z" fill="#2C3B4B"/>
<path d="M354.417 209.668C352.529 209.441 350.717 209.894 349.207 211.102C347.697 212.235 346.791 213.971 346.489 215.859C342.865 244.851 326.557 270.445 301.794 286.074C290.469 293.246 283.749 305.402 283.749 318.765V339.679H216.932V318.237C216.932 305.326 210.212 293.095 199.416 286.376C170.65 268.482 153.436 237.452 153.436 203.477C153.436 154.402 190.054 112.801 238.525 106.761C242.375 106.308 245.169 102.76 244.64 98.8338C244.414 96.9463 243.432 95.2853 241.922 94.0773C240.412 92.9448 238.6 92.4163 236.713 92.6428C209.986 95.9648 185.297 109.102 167.253 129.562C149.208 150.023 139.242 176.297 139.242 203.401C139.242 222.729 144.225 241.831 153.738 258.516C163.025 274.749 176.237 288.565 192.017 298.38C198.736 302.533 202.889 310.158 202.889 318.161V340.887C197.151 343.378 193.376 349.116 193.376 355.458V363.234C193.376 366.405 194.282 369.426 196.018 371.992C194.282 374.559 193.376 377.579 193.376 380.75V388.527C193.376 397.285 200.473 404.382 209.155 404.382H224.708V415.178C224.708 423.181 231.201 429.75 239.204 429.75H261.703C269.706 429.75 276.199 423.257 276.199 415.178V404.382H291.677C300.359 404.382 307.456 397.285 307.456 388.527V380.75C307.456 377.579 306.55 374.559 304.814 371.992C306.55 369.426 307.456 366.405 307.456 363.234V355.458C307.456 349.192 303.681 343.378 297.943 340.887V318.69C297.943 310.234 302.247 302.533 309.419 298.003C337.731 280.109 356.38 250.815 360.608 217.595C361.061 213.669 358.267 210.121 354.417 209.668ZM262.005 404.457V415.254C262.005 415.48 261.779 415.631 261.628 415.631H239.129C238.978 415.631 238.751 415.405 238.751 415.254V404.457H262.005ZM293.338 363.234C293.338 364.141 292.583 364.896 291.677 364.896H209.155C208.249 364.896 207.494 364.141 207.494 363.234V355.458C207.494 354.552 208.249 353.797 209.155 353.797H291.677C292.583 353.797 293.338 354.552 293.338 355.458V363.234ZM207.494 380.75C207.494 379.844 208.249 379.089 209.155 379.089H291.677C292.583 379.089 293.338 379.844 293.338 380.75V388.527C293.338 389.433 292.583 390.188 291.677 390.188H209.155C208.249 390.188 207.494 389.433 207.494 388.527V380.75Z" fill="#2C3B4B"/>
</svg>
