<svg width="35" height="14" viewBox="0 0 35 14" fill="none" xmlns="http://www.w3.org/2000/svg">
<path fill-rule="evenodd" clip-rule="evenodd" d="M27.4998 11.7906L31.3818 7.86653H0.499805V6.39986H31.3817L27.4998 2.47582L28.6961 1.26656L34.4998 7.13323L28.6961 12.9999L27.4998 11.7906ZM30.9025 6.19986H0.299805V8.06653H30.9026L27.2185 11.7906L28.6961 13.2843L34.7811 7.13323L28.6961 0.982178L27.2185 2.47582L30.9025 6.19986Z" fill="white"/>
<path d="M31.3818 7.86653H0.499805V6.39986H31.3817L27.4998 2.47582L28.6961 1.26656L34.4998 7.13323L28.6961 12.9999L27.4998 11.7906L31.3818 7.86653Z" fill="white"/>
</svg>
