<svg width="13" height="15" viewBox="0 0 13 15" fill="none" xmlns="http://www.w3.org/2000/svg">
<path fill-rule="evenodd" clip-rule="evenodd" d="M11 12.7C11.3866 12.7 11.7 12.3866 11.7 12C11.7 11.6134 11.3866 11.3 11 11.3C10.6134 11.3 10.3 11.6134 10.3 12C10.3 12.3866 10.6134 12.7 11 12.7ZM11 14C12.1046 14 13 13.1046 13 12C13 10.8954 12.1046 10 11 10C9.89543 10 9 10.8954 9 12C9 13.1046 9.89543 14 11 14Z" fill="#F33939"/>
<path fill-rule="evenodd" clip-rule="evenodd" d="M3.89214 2.64961C3.62245 3.4353 2.87717 4 2 4C0.895431 4 0 3.10457 0 2C0 0.895431 0.895431 0 2 0C2.87688 0 3.62196 0.564324 3.89187 1.34961H8.49961C10.2393 1.34961 11.6496 2.75991 11.6496 4.49961C11.6496 6.23931 10.2393 7.64961 8.49961 7.64961H3.49961C2.47788 7.64961 1.64961 8.47788 1.64961 9.49961C1.64961 10.5213 2.47788 11.3496 3.49961 11.3496H5.43037L4.53999 10.4592L5.45923 9.53999L7.91885 11.9996L5.45923 14.4592L4.53999 13.54L5.43037 12.6496H3.49961C1.75991 12.6496 0.349609 11.2393 0.349609 9.49961C0.349609 7.75991 1.75991 6.34961 3.49961 6.34961H8.49961C9.52134 6.34961 10.3496 5.52134 10.3496 4.49961C10.3496 3.47788 9.52134 2.64961 8.49961 2.64961H3.89214ZM2.7 2C2.7 2.3866 2.3866 2.7 2 2.7C1.6134 2.7 1.3 2.3866 1.3 2C1.3 1.6134 1.6134 1.3 2 1.3C2.3866 1.3 2.7 1.6134 2.7 2Z" fill="#F33939"/>
</svg>
