<svg width="500" height="500" viewBox="0 0 500 500" fill="none" xmlns="http://www.w3.org/2000/svg">
<path d="M372.275 382.343C367.998 382.343 364.513 385.828 364.513 390.105V424.874C364.513 429.15 361.029 432.635 356.752 432.635H75.1958C70.919 432.635 67.4342 429.15 67.4342 424.874V75.2056C67.4342 70.9288 70.919 67.444 75.1958 67.444H356.752C361.029 67.444 364.513 70.9288 364.513 75.2056V143.634C364.513 147.911 367.998 151.396 372.275 151.396C376.552 151.396 380.037 147.911 380.037 143.634V75.2056C379.957 62.3752 369.582 52 356.752 52H75.1958C62.3654 52 51.9902 62.3752 51.9902 75.2056V424.794C51.9902 437.625 62.3654 448 75.1958 448H356.752C369.582 448 379.957 437.625 379.957 424.794V390.026C379.957 385.749 376.552 382.343 372.275 382.343Z" fill="#2C3B4B"/>
<path d="M441.179 363.414L401.263 323.418C408.153 311.142 412.034 296.965 412.034 281.997C412.034 235.031 373.859 196.857 326.973 196.857C326.498 196.857 326.023 196.857 325.547 196.857V154.247C325.547 149.97 322.063 146.485 317.786 146.485H272.563V104.747C272.563 100.47 269.078 96.9854 264.801 96.9854H211.895C207.619 96.9854 204.134 100.47 204.134 104.747V151.237H158.911C154.634 151.237 151.149 154.722 151.149 158.999V200.817H113.687C109.411 200.817 105.926 204.301 105.926 208.578V250.396C105.926 254.673 109.411 258.157 113.687 258.157H245.397C243.179 265.761 241.991 273.76 241.991 282.076C241.991 329.041 280.166 367.216 327.052 367.216C342.1 367.216 356.198 363.256 368.474 356.445L408.074 396.124C412.747 400.797 418.845 403.173 424.864 403.173C430.487 403.173 436.111 401.113 440.546 396.995C445.219 392.639 447.832 386.778 447.911 380.442C448.07 373.869 445.694 367.849 441.179 363.414ZM151.387 242.555H121.449V216.261H151.387V242.555ZM204.292 242.555H166.831V208.499V166.681H204.292V242.555ZM219.815 242.555V158.92V112.509H257.277V154.326V182.363V192.976C257.277 197.253 260.762 200.737 265.039 200.737C269.315 200.737 272.8 197.253 272.8 192.976V182.363V162.088H310.183V198.52C284.759 203.668 263.455 220.141 251.733 242.476H219.815V242.555ZM327.052 351.613C288.719 351.613 257.515 320.409 257.515 281.997C257.515 243.585 288.719 212.38 327.052 212.38C365.385 212.38 396.59 243.585 396.59 281.997C396.59 320.409 365.385 351.613 327.052 351.613ZM430.012 385.511C427.003 388.283 422.092 388.125 419.003 385.036L381.463 347.337C385.423 344.01 389.066 340.367 392.392 336.407L430.25 374.344C431.755 375.849 432.547 377.829 432.547 379.967C432.467 382.105 431.596 384.006 430.012 385.511Z" fill="#2C3B4B"/>
<path d="M347.169 242C343.526 239.862 338.853 241.208 336.794 244.931L296.006 319.3C293.947 323.022 295.214 327.853 298.857 329.912C300.045 330.625 301.312 330.942 302.579 330.942C305.193 330.942 307.807 329.516 309.232 326.982L350.02 252.613C352.079 248.891 350.812 244.139 347.169 242Z" fill="#2C3B4B"/>
<path d="M353.98 288.967C341.308 288.967 331.012 299.263 331.012 311.935C331.012 324.607 341.308 334.903 353.98 334.903C366.652 334.903 376.948 324.607 376.948 311.935C377.027 299.342 366.652 288.967 353.98 288.967ZM353.98 319.696C349.782 319.696 346.297 316.291 346.297 312.014C346.297 307.816 349.703 304.331 353.98 304.331C358.177 304.331 361.662 307.737 361.662 312.014C361.662 316.211 358.257 319.696 353.98 319.696Z" fill="#2C3B4B"/>
<path d="M323.012 252.534C323.012 239.546 312.716 229.012 300.044 229.012C287.372 229.012 277.076 239.546 277.076 252.534C277.076 265.523 287.372 276.057 300.044 276.057C312.637 275.978 323.012 265.444 323.012 252.534ZM292.362 252.534C292.362 248.178 295.767 244.694 300.044 244.694C304.242 244.694 307.727 248.178 307.727 252.534C307.727 256.89 304.321 260.375 300.044 260.375C295.767 260.296 292.362 256.811 292.362 252.534Z" fill="#2C3B4B"/>
<path d="M93.9668 398.5C93.9668 402.618 97.4516 406.024 101.649 406.024H315.252C319.528 406.024 322.934 402.698 322.934 398.5C322.934 394.302 319.449 390.976 315.252 390.976H101.728C97.4516 390.976 93.9668 394.382 93.9668 398.5Z" fill="#2C3B4B"/>
<path d="M167.702 363.018H215.301C219.578 363.018 222.984 359.692 222.984 355.494C222.984 351.376 219.578 347.97 215.301 347.97H167.702C163.425 347.97 160.02 351.297 160.02 355.494C160.02 359.613 163.425 363.018 167.702 363.018Z" fill="#2C3B4B"/>
<path d="M167.702 320.013H215.301C219.578 320.013 222.984 316.449 222.984 312.014C222.984 307.579 219.578 304.015 215.301 304.015H167.702C163.425 304.015 160.02 307.579 160.02 312.014C160.02 316.449 163.425 320.013 167.702 320.013Z" fill="#2C3B4B"/>
<path d="M118.518 308.766C123.587 308.766 127.705 312.172 127.705 316.449C127.705 320.725 131.111 324.131 135.388 324.131C139.585 324.131 143.07 320.725 143.07 316.449C143.07 306.311 136.021 297.599 126.2 294.589C126.121 290.392 122.716 287.065 118.518 287.065C114.32 287.065 110.915 290.392 110.836 294.589C101.094 297.52 93.9659 306.232 93.9659 316.369C93.9659 329.041 104.975 339.337 118.439 339.337C123.508 339.337 127.626 342.743 127.626 347.02C127.626 351.297 123.508 354.702 118.439 354.702C113.37 354.702 109.252 351.297 109.252 347.02C109.252 342.743 105.846 339.337 101.569 339.337C97.3715 339.337 93.8867 342.743 93.8867 347.02C93.8867 357.157 100.936 365.869 110.756 368.879V369.354C110.756 373.631 114.162 377.037 118.439 377.037C122.636 377.037 126.121 373.631 126.121 369.354V368.879C135.863 365.869 142.991 357.237 142.991 347.02C142.991 334.348 131.982 324.052 118.518 324.052C113.449 324.052 109.331 320.646 109.331 316.369C109.331 312.093 113.449 308.766 118.518 308.766Z" fill="#2C3B4B"/>
</svg>
