<svg width="48" height="48" viewBox="0 0 48 48" fill="none" xmlns="http://www.w3.org/2000/svg">
<path d="M36 15.0727C36 20.7565 30.4507 27.314 26.1101 31.8447C24.959 33.0462 23.041 33.0462 21.8899 31.8447C17.5493 27.314 12 20.7565 12 15.0727C12 8.40512 17.3726 3 24 3C30.6274 3 36 8.40512 36 15.0727Z" fill="#3AAA35"/>
<circle cx="24" cy="41" r="4" fill="#3AAA35"/>
<circle cx="24" cy="15" r="5" fill="white"/>
</svg>
